{
  "project_info": {
    "project_number": "986624844625",
    "firebase_url": "https://actividad-3.firebaseio.com",
    "project_id": "actividad-3",
    "storage_bucket": "actividad-3.appspot.com"
  },
  "client": [
    {
      "client_info": {
        "mobilesdk_app_id": "1:986624844625:android:fb7981b47ba1c10c",
        "android_client_info": {
          "package_name": "com.example.jaime.actividad3"
        }
      },
      "oauth_client": [
        {
          "client_id": "986624844625-iqnh0nr422uieved87ot9t04a620q383.apps.googleusercontent.com",
          "client_type": 3
        }
      ],
      "api_key": [
        {
          "current_key": "AIzaSyBTmCnyOuh7vkh66u1I1fYPDAZ6Iw8EoeM"
        }
      ],
      "services": {
        "analytics_service": {
          "status": 1
        },
        "appinvite_service": {
          "status": 1,
          "other_platform_oauth_client": []
        },
        "ads_service": {
          "status": 2
        }
      }
    },
    {
      "client_info": {
        "mobilesdk_app_id": "1:986624844625:android:b4324867e496330e",
        "android_client_info": {
          "package_name": "com.example.examen"
        }
      },
      "oauth_client": [
        {
          "client_id": "986624844625-iqnh0nr422uieved87ot9t04a620q383.apps.googleusercontent.com",
          "client_type": 3
        }
      ],
      "api_key": [
        {
          "current_key": "AIzaSyBTmCnyOuh7vkh66u1I1fYPDAZ6Iw8EoeM"
        }
      ],
      "services": {
        "analytics_service": {
          "status": 1
        },
        "appinvite_service": {
          "status": 1,
          "other_platform_oauth_client": []
        },
        "ads_service": {
          "status": 2
        }
      }
    }
  ],
  "configuration_version": "1"
}